%YAML 1.1
%TAG !u! tag:unity3d.com,2011:
--- !u!1045 &1
EditorBuildSettings:
  m_ObjectHideFlags: 0
  serializedVersion: 2
  m_Scenes:
  - enabled: 1
    path: Assets/Scenes/Menu.unity
    guid: 28df52cca5877814b9352ecf01d91d70
  - enabled: 0
    path: Assets/Scenes/Ai.unity
    guid: ce6040418614a3a4e949501f68516027
  - enabled: 1
    path: Assets/aishoot.unity
    guid: 28c09148db01fd8479bf509cc8f60913
  - enabled: 1
    path: Assets/Death.unity
    guid: 758bc8ee3fc25cb44aee65c79dd0350e
  - enabled: 1
    path: Assets/WinCredits.unity
    guid: 2ce4fdd61d546a14d81c144eeae6390a
  m_configObjects: {}
